<?xml version="1.0" encoding="utf-8"?>
<!-- Generator: Adobe Illustrator 27.1.0, SVG Export Plug-In . SVG Version: 6.00 Build 0)  -->
<svg version="1.1" id="圖層_1" xmlns="http://www.w3.org/2000/svg" xmlns:xlink="http://www.w3.org/1999/xlink" x="0px" y="0px"
	 viewBox="0 0 100 100" style="enable-background:new 0 0 100 100;" xml:space="preserve">
<style type="text/css">
	.st0{fill:#FFFFFF;}
	.st1{fill:none;stroke:#59C2AC;stroke-width:3;stroke-linecap:round;stroke-linejoin:round;}
	.st2{fill:none;stroke:#008B8B;stroke-width:3;stroke-linecap:round;stroke-linejoin:round;}
	.st3{fill:none;stroke:#008B8B;stroke-width:3;stroke-linecap:round;stroke-linejoin:round;stroke-miterlimit:10;}
</style>
<rect y="0" class="st0" width="100" height="100"/>
<g>
	<g>
		<line class="st1" x1="67.2" y1="77.8" x2="67.2" y2="85"/>
		<line class="st1" x1="44.5" y1="84.7" x2="44.5" y2="77.6"/>
		<path class="st1" d="M46.2,77.9c-5.1-2.2-8.3-7.2-8.3-12.8v-35c0-2,1.6-3.6,3.6-3.6l0,0c2,0,3.6,1.6,3.6,3.6v-8.3
			c0-2,1.6-3.6,3.6-3.6l0,0c2,0,3.6,1.6,3.6,3.6V17c0-2,1.6-3.6,3.6-3.6l0,0c2,0,3.6,1.6,3.6,3.6v4.8c0-2,1.6-3.6,3.6-3.6l0,0
			c2,0,3.6,1.6,3.6,3.6v19.7l0,0c0-2.3,1.8-4.2,4.1-4.2l0,0l0,0c2.3,0,4.2,1.9,4.2,4.2v21.8c0,4-1.6,7.8-4.4,10.7L70,74.6
			c-1.3,1.3-2.9,2.4-4.6,3.2"/>
		<line class="st1" x1="59.3" y1="21.8" x2="59.3" y2="44.3"/>
		<line class="st1" x1="45" y1="27.8" x2="45" y2="44.3"/>
		<line class="st1" x1="52.2" y1="44.3" x2="52.2" y2="21.8"/>
		<path class="st1" d="M66.5,42.1V54l-3,3c-2.7,2.7-4.2,6.4-4.2,10.2l0,0"/>
		<path class="st2" d="M61.1,51.8c0,0-7.2-1.2-15.5,9.5"/>
		<line class="st2" x1="44.4" y1="51.8" x2="50.7" y2="55.5"/>
	</g>
	<circle class="st2" cx="18.3" cy="51.4" r="3"/>
	<g>
		<line class="st2" x1="18.8" y1="34.2" x2="21.1" y2="34.2"/>
		<line class="st2" x1="23.5" y1="29.5" x2="23.5" y2="31.8"/>
		<line class="st2" x1="23.5" y1="36.6" x2="23.5" y2="39"/>
		<line class="st2" x1="25.9" y1="34.2" x2="28.3" y2="34.2"/>
	</g>
	<circle class="st3" cx="27.2" cy="65.5" r="1.2"/>
</g>
</svg>
